Assignment 5
…
Male and female graduate enrollment (1967 - 2015). Compare trends in total graduate enrollment for males and females (including full-time/part-time and private/public universities) in the United States from 1967 - 2015. Describe your results statistically, graphically and in text.

#RESEARCH QUESTION: Does gender effect college enrollment rate

# Create a data set of male and female total enrollments
# look into regressions between genders
# Create a graphic

# data set of only totals for males and females
gender_totals<- grad_enrollment %>% 
  select(Year,Total,Total_Males, Total_Females)
gender_totals

## # A tibble: 49 x 4
##     Year   Total Total_Males Total_Females
##    <int>   <int>       <int>         <int>
##  1  1967  896065      630701        265364
##  2  1968 1037377      696649        340728
##  3  1969 1120175      738673        381502
##  4  1970 1212243      793940        418303
##  5  1971 1204390      789131        415259
##  6  1972 1272421      810164        462257
##  7  1973 1342452      833453        508999
##  8  1974 1425001      856847        568154
##  9  1975 1505404      891992        613412
## 10  1976 1577546      904551        672995
## # ... with 39 more rows
…
Exploring academic salaries for professors in U.S. colleges. Explore relationships between variables in the Faculty salary data (2008 - 2009 survey) dataset. Develop a model describing faculty salary based on data for faculty sex, rank, years in current position, field, and number of years since doctoral degree was earned. You should make decisions regarding which variables should remain in your final model. Describe the results qualitatively and quantitatively (i.e., dont just report the statistical results of the model  make sure you describe interesting findings in text). You can also discuss any concerns that you have with the model(s) you present, if any

# data wrangling
faculty_salary1<- faculty_salary %>% 
  mutate(Discipline = case_when
         (`Discipline (A = Theoretical, B = Applied)` == "B" ~ "Apllied", 
                  `Discipline (A = Theoretical, B = Applied)`  == "A" ~"Theoretical")) %>% 
  select(-`Discipline (A = Theoretical, B = Applied)`) 

names(faculty_salary1)<- c("faculty_rank", "years_since_phd", "years_employed", "sex", "salary", "discipline")

faculty_salary1

## # A tibble: 397 x 6
##    faculty_rank years_since_phd years_employed sex    salary discipline
##    <chr>                  <int>          <int> <chr>   <int> <chr>     
##  1 Prof                      19             18 Male   139750 Apllied   
##  2 Prof                      20             16 Male   173200 Apllied   
##  3 AsstProf                   4              3 Male    79750 Apllied   
##  4 Prof                      45             39 Male   115000 Apllied   
##  5 Prof                      40             41 Male   141500 Apllied   
##  6 AssocProf                  6              6 Male    97000 Apllied   
##  7 Prof                      30             23 Male   175000 Apllied   
##  8 Prof                      45             45 Male   147765 Apllied   
##  9 Prof                      21             20 Male   119250 Apllied   
## 10 Prof                      18             18 Female 129000 Apllied   
## # ... with 387 more rows
…
